<?xml version="1.0" encoding="utf-8"?>
<!-- Generator: Adobe Illustrator 23.0.3, SVG Export Plug-In . SVG Version: 6.00 Build 0)  -->
<svg version="1.1" id="Layer_1" xmlns="http://www.w3.org/2000/svg" xmlns:xlink="http://www.w3.org/1999/xlink" x="0px" y="0px"
	 viewBox="0 0 24 24" style="enable-background:new 0 0 24 24;" xml:space="preserve">
<path d="M13,3.4l5.4,5.4c0.4,0.4,1,0.4,1.4,0c0.4-0.4,0.4-1,0-1.4l-7.1-7.1c-0.1-0.1-0.2-0.2-0.3-0.2c-0.2-0.1-0.5-0.1-0.8,0
	c-0.1,0-0.2,0.1-0.3,0.2L4.2,7.4c-0.4,0.4-0.4,1,0,1.4c0.4,0.4,1,0.4,1.4,0L11,3.4L11,23c0,0.6,0.4,1,1,1c0,0,0,0,0,0
	c0.6,0,1-0.4,1-1c0,0,0,0,0,0L13,3.4z"/>
</svg>
